<svg width="110" height="25" viewBox="0 0 110 25" fill="none" xmlns="http://www.w3.org/2000/svg">
<path d="M0 24.9997H109.207L96.707 12.5L109.207 0H67.207H45.707H35.207H29.707H27.207H25.207H24.707C8.20703 3 0.707031 16.9997 0 24.9997Z" fill="#6E67F6" fill-opacity="0.66"/>
</svg>
